<?xml version="1.0" encoding="utf-8"?>
<!-- Generator: Adobe Illustrator 16.0.0, SVG Export Plug-In . SVG Version: 6.00 Build 0)  -->
<!DOCTYPE svg PUBLIC "-//W3C//DTD SVG 1.1//EN" "http://www.w3.org/Graphics/SVG/1.1/DTD/svg11.dtd">
<svg version="1.1" id="Layer_1" xmlns="http://www.w3.org/2000/svg" xmlns:xlink="http://www.w3.org/1999/xlink" x="0px" y="0px"
	 width="187.096px" height="187.332px" viewBox="0 0 187.096 187.332" enable-background="new 0 0 187.096 187.332"
	 xml:space="preserve">
<g>
	<defs>
		<rect id="SVGID_1_" x="-93.978" y="-865.668" width="1242" height="2208"/>
	</defs>
	<clipPath id="SVGID_2_">
		<use xlink:href="#SVGID_1_"  overflow="visible"/>
	</clipPath>
	<g clip-path="url(#SVGID_2_)">
		<defs>
			<rect id="SVGID_3_" x="-93.978" y="-865.006" width="1241.379" height="2207.338"/>
		</defs>
		<clipPath id="SVGID_4_">
			<use xlink:href="#SVGID_3_"  overflow="visible"/>
		</clipPath>
		<g clip-path="url(#SVGID_4_)">
			<defs>
				<rect id="SVGID_5_" x="-94.599" y="-865.006" width="1242" height="2208"/>
			</defs>
			<clipPath id="SVGID_6_">
				<use xlink:href="#SVGID_5_"  overflow="visible"/>
			</clipPath>
		</g>
	</g>
	<g clip-path="url(#SVGID_2_)">
		<defs>
			<rect id="SVGID_7_" x="-93.978" y="-865.667" width="1241.379" height="2207.338"/>
		</defs>
		<clipPath id="SVGID_8_">
			<use xlink:href="#SVGID_7_"  overflow="visible"/>
		</clipPath>
		<g clip-path="url(#SVGID_8_)">
			<defs>
				<rect id="SVGID_9_" x="-94.599" y="-866.33" width="1242" height="2208"/>
			</defs>
			<clipPath id="SVGID_10_">
				<use xlink:href="#SVGID_9_"  overflow="visible"/>
			</clipPath>
		</g>
	</g>
	<g clip-path="url(#SVGID_2_)">
		<defs>
			<rect id="SVGID_11_" x="-93.978" y="-865.006" width="1241.131" height="2207.338"/>
		</defs>
		<clipPath id="SVGID_12_">
			<use xlink:href="#SVGID_11_"  overflow="visible"/>
		</clipPath>
		<g clip-path="url(#SVGID_12_)">
			<defs>
				<rect id="SVGID_13_" x="-94.472" y="-865.006" width="1241.625" height="2208"/>
			</defs>
			<clipPath id="SVGID_14_">
				<use xlink:href="#SVGID_13_"  overflow="visible"/>
			</clipPath>
		</g>
	</g>
	<g clip-path="url(#SVGID_2_)">
		<defs>
			<rect id="SVGID_15_" x="-93.853" y="-865.006" width="1241.625" height="2207.338"/>
		</defs>
		<clipPath id="SVGID_16_">
			<use xlink:href="#SVGID_15_"  overflow="visible"/>
		</clipPath>
		<g clip-path="url(#SVGID_16_)">
			<defs>
				<rect id="SVGID_17_" x="-93.853" y="-865.006" width="1241.625" height="2208"/>
			</defs>
			<clipPath id="SVGID_18_">
				<use xlink:href="#SVGID_17_"  overflow="visible"/>
			</clipPath>
		</g>
	</g>
	<g clip-path="url(#SVGID_2_)">
		<defs>
			<rect id="SVGID_19_" x="-93.853" y="-863.683" width="1241.875" height="2206.015"/>
		</defs>
		<clipPath id="SVGID_20_">
			<use xlink:href="#SVGID_19_"  overflow="visible"/>
		</clipPath>
		<g clip-path="url(#SVGID_20_)">
			<defs>
				<rect id="SVGID_21_" x="-93.853" y="-863.683" width="1241.875" height="2206.677"/>
			</defs>
			<clipPath id="SVGID_22_">
				<use xlink:href="#SVGID_21_"  overflow="visible"/>
			</clipPath>
		</g>
	</g>
	<g clip-path="url(#SVGID_2_)">
		<defs>
			<rect id="SVGID_23_" x="-93.978" y="-865.668" width="1242" height="2208"/>
		</defs>
		<clipPath id="SVGID_24_">
			<use xlink:href="#SVGID_23_"  overflow="visible"/>
		</clipPath>
		<g opacity="0.5" clip-path="url(#SVGID_24_)">
			<g>
				<defs>
					<rect id="SVGID_25_" x="-93.978" y="-865.008" width="1242" height="1375.545"/>
				</defs>
				<clipPath id="SVGID_26_">
					<use xlink:href="#SVGID_25_"  overflow="visible"/>
				</clipPath>
			</g>
		</g>
	</g>
	<rect x="-93.853" y="1141.994" clip-path="url(#SVGID_2_)" fill="#FFFFFF" width="1241.875" height="200.338"/>
	<g clip-path="url(#SVGID_2_)">
		<defs>
			<rect id="SVGID_27_" x="-93.978" y="-865.668" width="1242" height="2208"/>
		</defs>
		<clipPath id="SVGID_28_">
			<use xlink:href="#SVGID_27_"  overflow="visible"/>
		</clipPath>
		<path clip-path="url(#SVGID_28_)" fill="#EFEEEE" d="M539.647,1243.494c0,6.903-5.596,12.5-12.5,12.5s-12.5-5.597-12.5-12.5
			c0-6.904,5.596-12.5,12.5-12.5S539.647,1236.59,539.647,1243.494"/>
		<path clip-path="url(#SVGID_28_)" fill="#B3B3B3" d="M496.314,1243.494c0,6.903-5.596,12.5-12.5,12.5
			c-6.904,0-12.5-5.597-12.5-12.5c0-6.904,5.596-12.5,12.5-12.5C490.718,1230.994,496.314,1236.59,496.314,1243.494"/>
		<path clip-path="url(#SVGID_28_)" fill="#EFEEEE" d="M583.23,1243.494c0,6.903-5.596,12.5-12.5,12.5
			c-6.903,0-12.5-5.597-12.5-12.5c0-6.904,5.597-12.5,12.5-12.5C577.635,1230.994,583.23,1236.59,583.23,1243.494"/>
	</g>
	<rect x="-93.978" y="842.58" clip-path="url(#SVGID_2_)" fill="#D4E2F5" width="1241.129" height="299.586"/>
	<g clip-path="url(#SVGID_2_)">
		<defs>
			<rect id="SVGID_29_" x="-93.978" y="-865.668" width="1242" height="2208"/>
		</defs>
		<clipPath id="SVGID_30_">
			<use xlink:href="#SVGID_29_"  overflow="visible"/>
		</clipPath>
		<g clip-path="url(#SVGID_30_)" enable-background="new    ">
			<g>
				<defs>
					<rect id="SVGID_31_" x="248.391" y="961.004" width="549.341" height="67.801"/>
				</defs>
				<clipPath id="SVGID_32_">
					<use xlink:href="#SVGID_31_"  overflow="visible"/>
				</clipPath>
				<g clip-path="url(#SVGID_32_)">
					<text transform="matrix(1.0021 0 0 1 248.3906 1011.7041)"><tspan x="0" y="0" fill="#FFFFFF" font-family="'Exo2.0-SemiBold'" font-size="60">W</tspan><tspan x="51.3" y="0" fill="#FFFFFF" font-family="'Exo2.0-SemiBold'" font-size="60" letter-spacing="0.998">or</tspan><tspan x="106.859" y="0" fill="#FFFFFF" font-family="'Exo2.0-SemiBold'" font-size="60">k</tspan><tspan x="135.179" y="0" fill="#FFFFFF" font-family="'Exo2.0-SemiBold'" font-size="60" letter-spacing="0.998">-Li</tspan><tspan x="200.277" y="0" fill="#FFFFFF" font-family="'Exo2.0-SemiBold'" font-size="60" letter-spacing="0.998">f</tspan><tspan x="218.996" y="0" fill="#FFFFFF" font-family="'Exo2.0-SemiBold'" font-size="60" letter-spacing="0.998">e</tspan><tspan x="250.556" y="0" fill="#FFFFFF" font-family="'Exo2.0-SemiBold'" font-size="60" letter-spacing="0.998">-</tspan><tspan x="270.415" y="0" fill="#FFFFFF" font-family="'Exo2.0-SemiBold'" font-size="60" letter-spacing="0.998">Ba</tspan><tspan x="334.855" y="0" fill="#FFFFFF" font-family="'Exo2.0-SemiBold'" font-size="60" letter-spacing="0.998">l</tspan><tspan x="350.454" y="0" fill="#FFFFFF" font-family="'Exo2.0-SemiBold'" font-size="60" letter-spacing="0.998">a</tspan><tspan x="380.873" y="0" fill="#FFFFFF" font-family="'Exo2.0-SemiBold'" font-size="60" letter-spacing="0.998">n</tspan><tspan x="415.614" y="0" fill="#FFFFFF" font-family="'Exo2.0-SemiBold'" font-size="60" letter-spacing="0.998">c</tspan><tspan x="443.514" y="0" fill="#FFFFFF" font-family="'Exo2.0-SemiBold'" font-size="60">e</tspan></text>
				</g>
			</g>
		</g>
		<path clip-path="url(#SVGID_30_)" fill="#FFFFFF" d="M93.548,899.083c51.665,0,93.548,41.797,93.548,93.357
			c0,51.559-41.883,93.355-93.548,93.355S0,1043.999,0,992.44C0,940.88,41.883,899.083,93.548,899.083"/>
		<path clip-path="url(#SVGID_30_)" fill="#B3B3B3" d="M119.469,986.444c-1.815,0-3.543,0.351-5.143,0.964l-7.138-14.119h5.656
			v-2.625h-9.927l3.333,6.591H83.54l-1.995-3.966h5.046v-2.625h-9.307l3.61,7.173c-0.021,0.031-0.056,0.044-0.077,0.077
			l-5.563,9.692c-1.744-0.747-3.656-1.162-5.666-1.162c-7.958,0-14.44,6.479-14.44,14.438c0,7.961,6.482,14.44,14.44,14.44
			c7.517,0,13.706-5.779,14.372-13.127h10.748c0.471,0,0.902-0.249,1.138-0.654l12.122-20.889l3.999,7.917
			c-4.148,2.538-6.937,7.101-6.937,12.313c0,7.965,6.481,14.442,14.439,14.442c7.963,0,14.439-6.478,14.439-14.442
			C133.908,992.923,127.432,986.444,119.469,986.444 M82.294,980.617l9.542,18.954H83.96c-0.405-4.469-2.851-8.356-6.399-10.714
			L82.294,980.617z M81.268,999.571h-9.86l4.84-8.433C79.012,993.033,80.879,996.079,81.268,999.571 M69.588,1012.697
			c-6.512,0-11.814-5.299-11.814-11.814c0-6.514,5.302-11.813,11.814-11.813c1.533,0,2.989,0.315,4.333,0.849l-5.923,10.313
			c-0.231,0.404-0.231,0.904,0.005,1.31c0.231,0.407,0.667,0.656,1.133,0.656h12.132
			C80.607,1008.088,75.654,1012.697,69.588,1012.697 M94.395,998.813l-9.532-18.932h20.515L94.395,998.813z M119.469,1012.7
			c-6.512,0-11.814-5.302-11.814-11.817c0-4.19,2.21-7.854,5.507-9.951l5.553,10.978l2.344-1.184l-5.528-10.931
			c1.241-0.44,2.553-0.726,3.938-0.726c6.517,0,11.814,5.3,11.814,11.813C131.283,1007.398,125.986,1012.7,119.469,1012.7"/>
		<rect x="-94.216" y="542.995" clip-path="url(#SVGID_30_)" fill="#A7BBE2" width="1241.369" height="299.585"/>
		<g clip-path="url(#SVGID_30_)" enable-background="new    ">
			<g>
				<defs>
					<rect id="SVGID_33_" x="248.391" y="661.419" width="542.604" height="67.801"/>
				</defs>
				<clipPath id="SVGID_34_">
					<use xlink:href="#SVGID_33_"  overflow="visible"/>
				</clipPath>
				<g clip-path="url(#SVGID_34_)">
					<text transform="matrix(1.0021 0 0 1 248.3906 712.1191)"><tspan x="0" y="0" fill="#FFFFFF" font-family="'Exo2.0-SemiBold'" font-size="60" letter-spacing="0.998">Mi</tspan><tspan x="65.279" y="0" fill="#FFFFFF" font-family="'Exo2.0-SemiBold'" font-size="60" letter-spacing="0.998">n</tspan><tspan x="100.018" y="0" fill="#FFFFFF" font-family="'Exo2.0-SemiBold'" font-size="60" letter-spacing="0.998">df</tspan><tspan x="154.377" y="0" fill="#FFFFFF" font-family="'Exo2.0-SemiBold'" font-size="60" letter-spacing="0.998">u</tspan><tspan x="188.877" y="0" fill="#FFFFFF" font-family="'Exo2.0-SemiBold'" font-size="60">l</tspan><tspan x="203.097" y="0" fill="#FFFFFF" font-family="'Exo2.0-SemiBold'" font-size="60" letter-spacing="0.998"> E</tspan><tspan x="248.336" y="0" fill="#FFFFFF" font-family="'Exo2.0-SemiBold'" font-size="60">x</tspan><tspan x="276.895" y="0" fill="#FFFFFF" font-family="'Exo2.0-SemiBold'" font-size="60" letter-spacing="0.998">e</tspan><tspan x="308.455" y="0" fill="#FFFFFF" font-family="'Exo2.0-SemiBold'" font-size="60" letter-spacing="0.998">r</tspan><tspan x="329.095" y="0" fill="#FFFFFF" font-family="'Exo2.0-SemiBold'" font-size="60" letter-spacing="0.998">c</tspan><tspan x="357.474" y="0" fill="#FFFFFF" font-family="'Exo2.0-SemiBold'" font-size="60" letter-spacing="0.998">is</tspan><tspan x="398.154" y="0" fill="#FFFFFF" font-family="'Exo2.0-SemiBold'" font-size="60" letter-spacing="0.998">i</tspan><tspan x="413.694" y="0" fill="#FFFFFF" font-family="'Exo2.0-SemiBold'" font-size="60" letter-spacing="0.998">n</tspan><tspan x="448.433" y="0" fill="#FFFFFF" font-family="'Exo2.0-SemiBold'" font-size="60">g</tspan></text>
				</g>
			</g>
		</g>
		<path clip-path="url(#SVGID_30_)" fill="#FFFFFF" d="M93.548,599.498c51.665,0,93.548,41.797,93.548,93.357
			c0,51.559-41.883,93.355-93.548,93.355S0,744.414,0,692.855C0,641.295,41.883,599.498,93.548,599.498"/>
		<line clip-path="url(#SVGID_30_)" fill="#FFFFFF" x1="-94.217" y1="842.58" x2="1147.152" y2="842.58"/>
		
			<line clip-path="url(#SVGID_30_)" fill="none" stroke="#FFFFFF" stroke-width="10" x1="-94.217" y1="842.58" x2="1147.152" y2="842.58"/>
		<polygon clip-path="url(#SVGID_30_)" fill="#B3B3B3" points="105.918,691.551 81.183,691.551 81.183,671.764 73.763,671.764 
			73.763,713.813 81.183,713.813 81.183,694.024 105.918,694.024 105.918,713.813 113.338,713.813 113.338,671.764 105.918,671.764 
					"/>
		<polygon clip-path="url(#SVGID_30_)" fill="#B3B3B3" points="63.869,691.551 56.446,691.551 56.446,694.024 63.869,694.024 
			63.869,708.904 71.289,708.904 71.289,676.749 63.869,676.749 		"/>
		<polygon clip-path="url(#SVGID_30_)" fill="#B3B3B3" points="123.232,691.551 123.232,676.749 115.812,676.749 115.812,708.904 
			123.232,708.904 123.232,694.024 130.65,694.024 130.65,691.551 		"/>
		<rect x="-94.216" y="243.41" clip-path="url(#SVGID_30_)" fill="#FAD0CF" width="1241.369" height="299.585"/>
		<g clip-path="url(#SVGID_30_)" enable-background="new    ">
			<g>
				<defs>
					<rect id="SVGID_35_" x="248.391" y="361.834" width="401.619" height="67.801"/>
				</defs>
				<clipPath id="SVGID_36_">
					<use xlink:href="#SVGID_35_"  overflow="visible"/>
				</clipPath>
				<g clip-path="url(#SVGID_36_)">
					<text transform="matrix(1.0021 0 0 1 248.3906 412.5342)"><tspan x="0" y="0" fill="#FFFFFF" font-family="'Exo2.0-SemiBold'" font-size="60" letter-spacing="0.998">R</tspan><tspan x="33.42" y="0" fill="#FFFFFF" font-family="'Exo2.0-SemiBold'" font-size="60" letter-spacing="0.998">el</tspan><tspan x="80.639" y="0" fill="#FFFFFF" font-family="'Exo2.0-SemiBold'" font-size="60" letter-spacing="0.998">at</tspan><tspan x="132.298" y="0" fill="#FFFFFF" font-family="'Exo2.0-SemiBold'" font-size="60" letter-spacing="0.998">ions</tspan><tspan x="242.337" y="0" fill="#FFFFFF" font-family="'Exo2.0-SemiBold'" font-size="60" letter-spacing="0.998">h</tspan><tspan x="277.076" y="0" fill="#FFFFFF" font-family="'Exo2.0-SemiBold'" font-size="60" letter-spacing="0.998">ip</tspan><tspan x="328.255" y="0" fill="#FFFFFF" font-family="'Exo2.0-SemiBold'" font-size="60">s</tspan></text>
				</g>
			</g>
		</g>
		<path clip-path="url(#SVGID_30_)" fill="#FFFFFF" d="M93.548,299.913c51.665,0,93.548,41.797,93.548,93.357
			c0,51.559-41.883,93.355-93.548,93.355S0,444.829,0,393.271C0,341.71,41.883,299.913,93.548,299.913"/>
		<line clip-path="url(#SVGID_30_)" fill="#FFFFFF" x1="-94.217" y1="542.995" x2="1147.152" y2="542.995"/>
		
			<line clip-path="url(#SVGID_30_)" fill="none" stroke="#FFFFFF" stroke-width="10" x1="-94.217" y1="542.995" x2="1147.152" y2="542.995"/>
		<path clip-path="url(#SVGID_30_)" fill="#B3B3B3" d="M107.146,376.52c7.895,0,14.296,6.399,14.296,14.296
			c0,4.055-1.691,7.71-4.404,10.313L93.95,424.332L70.444,400.71c-2.467-2.569-3.987-6.053-3.987-9.895
			c0-7.896,6.402-14.296,14.296-14.296c5.945,0,11.042,3.631,13.197,8.797C96.104,380.15,101.201,376.52,107.146,376.52
			 M107.146,374.128c-5.259,0-10.088,2.442-13.196,6.467c-3.109-4.024-7.938-6.467-13.197-6.467c-9.2,0-16.686,7.486-16.686,16.688
			c0,4.322,1.651,8.425,4.653,11.55l23.535,23.653l1.695,1.701l1.695-1.701l23.088-23.203c3.274-3.144,5.1-7.418,5.1-12
			C123.833,381.614,116.347,374.128,107.146,374.128"/>
		<g clip-path="url(#SVGID_30_)" enable-background="new    ">
			<g>
				<defs>
					<rect id="SVGID_37_" x="248.391" y="62.252" width="427.831" height="67.8"/>
				</defs>
				<clipPath id="SVGID_38_">
					<use xlink:href="#SVGID_37_"  overflow="visible"/>
				</clipPath>
				<g clip-path="url(#SVGID_38_)">
					<text transform="matrix(1.0021 0 0 1 248.3906 112.9492)"><tspan x="0" y="0" fill="#FFFFFF" font-family="'Exo2.0-SemiBold'" font-size="60" letter-spacing="0.998">Mi</tspan><tspan x="65.279" y="0" fill="#FFFFFF" font-family="'Exo2.0-SemiBold'" font-size="60" letter-spacing="0.998">n</tspan><tspan x="100.018" y="0" fill="#FFFFFF" font-family="'Exo2.0-SemiBold'" font-size="60" letter-spacing="0.998">df</tspan><tspan x="154.377" y="0" fill="#FFFFFF" font-family="'Exo2.0-SemiBold'" font-size="60" letter-spacing="0.998">u</tspan><tspan x="188.877" y="0" fill="#FFFFFF" font-family="'Exo2.0-SemiBold'" font-size="60">l</tspan><tspan x="203.097" y="0" fill="#FFFFFF" font-family="'Exo2.0-SemiBold'" font-size="60" letter-spacing="0.998"> E</tspan><tspan x="248.336" y="0" fill="#FFFFFF" font-family="'Exo2.0-SemiBold'" font-size="60" letter-spacing="0.998">at</tspan><tspan x="299.994" y="0" fill="#FFFFFF" font-family="'Exo2.0-SemiBold'" font-size="60" letter-spacing="0.998">in</tspan><tspan x="350.334" y="0" fill="#FFFFFF" font-family="'Exo2.0-SemiBold'" font-size="60">g</tspan></text>
				</g>
			</g>
		</g>
		<path clip-path="url(#SVGID_30_)" fill="#FFFFFF" d="M93.548,0.328c51.665,0,93.548,41.797,93.548,93.357
			c0,51.559-41.883,93.355-93.548,93.355S0,145.244,0,93.686C0,42.125,41.883,0.328,93.548,0.328"/>
		<line clip-path="url(#SVGID_30_)" fill="#FFFFFF" x1="-94.217" y1="243.41" x2="1147.152" y2="243.41"/>
		
			<line clip-path="url(#SVGID_30_)" fill="none" stroke="#FFFFFF" stroke-width="10" x1="-94.217" y1="243.41" x2="1147.152" y2="243.41"/>
		
			<path clip-path="url(#SVGID_30_)" fill="none" stroke="#B3B3B3" stroke-width="3" stroke-linecap="round" stroke-linejoin="round" stroke-miterlimit="10" d="
			M89.931,124.474c1.47-0.86,3.242-0.86,4.717,0c1.738,1.016,3.891,1.455,4.945,1.455c8.991,0,22.477-12.924,22.477-37.089
			c0-9.55-8.17-16.858-16.858-16.858c-4.102,0-7.844,1.024-10.654,3.608c-0.007,0.008-0.017,0.016-0.026,0.025
			c-1.286,1.17-3.203,1.17-4.487,0c-0.008-0.009-0.018-0.017-0.026-0.025c-2.811-2.584-6.553-3.608-10.654-3.608
			c-8.687,0-16.856,7.308-16.856,16.858c0,24.165,13.484,37.089,22.474,37.089C86.039,125.929,88.191,125.49,89.931,124.474z"/>
		
			<path clip-path="url(#SVGID_30_)" fill="none" stroke="#B3B3B3" stroke-width="2" stroke-linecap="round" stroke-linejoin="round" stroke-miterlimit="10" d="
			M92.289,74.23c-0.562-5.056,1.124-10.676,5.62-12.923"/>
		<path clip-path="url(#SVGID_30_)" fill="none" stroke="#B3B3B3" stroke-linecap="round" stroke-miterlimit="10" d="
			M90.043,114.384c-8.38,0-15.172-6.792-15.172-15.17"/>
		<rect x="-94.216" y="-355.76" clip-path="url(#SVGID_30_)" fill="#A2D6D9" width="1241.369" height="299.585"/>
		<g clip-path="url(#SVGID_30_)" enable-background="new    ">
			<g>
				<defs>
					<rect id="SVGID_39_" x="248.391" y="-237.338" width="395.664" height="67.8"/>
				</defs>
				<clipPath id="SVGID_40_">
					<use xlink:href="#SVGID_39_"  overflow="visible"/>
				</clipPath>
				<g clip-path="url(#SVGID_40_)">
					<text transform="matrix(1.0021 0 0 1 248.3906 -186.6357)"><tspan x="0" y="0" fill="#FFFFFF" font-family="'Exo2.0-SemiBold'" font-size="60" letter-spacing="0.998">S</tspan><tspan x="30.66" y="0" fill="#FFFFFF" font-family="'Exo2.0-SemiBold'" font-size="60" letter-spacing="0.998">t</tspan><tspan x="52.019" y="0" fill="#FFFFFF" font-family="'Exo2.0-SemiBold'" font-size="60" letter-spacing="0.998">a</tspan><tspan x="82.379" y="0" fill="#FFFFFF" font-family="'Exo2.0-SemiBold'" font-size="60" letter-spacing="0.998">rterp</tspan><tspan x="213.177" y="0" fill="#FFFFFF" font-family="'Exo2.0-SemiBold'" font-size="60" letter-spacing="0.998">a</tspan><tspan x="243.536" y="0" fill="#FFFFFF" font-family="'Exo2.0-SemiBold'" font-size="60" letter-spacing="0.998">c</tspan><tspan x="271.916" y="0" fill="#FFFFFF" font-family="'Exo2.0-SemiBold'" font-size="60">k</tspan><tspan x="300.956" y="0" fill="#FFFFFF" font-family="'Exo2.0-SemiBold'" font-size="60" letter-spacing="0.998"> </tspan><tspan x="315.175" y="0" fill="#FFFFFF" font-family="'Exo2.0-SemiBold'" font-size="60">2</tspan></text>
				</g>
			</g>
		</g>
		<path clip-path="url(#SVGID_30_)" fill="#FFFFFF" d="M93.548-299.257c51.665,0,93.548,41.797,93.548,93.357
			c0,51.559-41.883,93.356-93.548,93.356S0-154.341,0-205.9C0-257.46,41.883-299.257,93.548-299.257"/>
		<line clip-path="url(#SVGID_30_)" fill="#FFFFFF" x1="-94.217" y1="-56.175" x2="1147.152" y2="-56.175"/>
		
			<line clip-path="url(#SVGID_30_)" fill="none" stroke="#FFFFFF" stroke-width="10" x1="-94.217" y1="-56.175" x2="1147.152" y2="-56.175"/>
		<path clip-path="url(#SVGID_30_)" fill="#B3B3B3" d="M123.842-231.168H66.313v15.581h2.398v38.353h52.734v-38.353h2.397V-231.168z
			 M119.048-179.631H71.109v-35.956h47.939V-179.631z M121.445-217.984H68.71h-0.001v-10.787h52.735V-217.984z"/>
		<path clip-path="url(#SVGID_30_)" fill="#B3B3B3" d="M86.408-199.996h17.397c2.477,0,4.486-1.951,4.486-4.359v-0.869
			c0-2.409-2.009-4.36-4.486-4.36H86.408c-2.478,0-4.484,1.951-4.484,4.36v0.869C81.924-201.947,83.93-199.996,86.408-199.996
			 M84.321-205.225c0-1.083,0.936-1.963,2.087-1.963h17.397c1.152,0,2.089,0.88,2.089,1.963v0.869c0,1.082-0.937,1.962-2.089,1.962
			H86.408c-1.151,0-2.087-0.88-2.087-1.962V-205.225z"/>
		<rect x="-94.216" y="-655.345" clip-path="url(#SVGID_30_)" fill="#7BC8C5" width="1241.369" height="299.585"/>
		<g clip-path="url(#SVGID_30_)" enable-background="new    ">
			<g>
				<defs>
					<rect id="SVGID_41_" x="248.391" y="-536.918" width="386.345" height="67.8"/>
				</defs>
				<clipPath id="SVGID_42_">
					<use xlink:href="#SVGID_41_"  overflow="visible"/>
				</clipPath>
				<g clip-path="url(#SVGID_42_)">
					<text transform="matrix(1.0021 0 0 1 248.3906 -486.2207)"><tspan x="0" y="0" fill="#FFFFFF" font-family="'Exo2.0-SemiBold'" font-size="60" letter-spacing="0.998">S</tspan><tspan x="30.66" y="0" fill="#FFFFFF" font-family="'Exo2.0-SemiBold'" font-size="60" letter-spacing="0.998">t</tspan><tspan x="52.019" y="0" fill="#FFFFFF" font-family="'Exo2.0-SemiBold'" font-size="60" letter-spacing="0.998">a</tspan><tspan x="82.379" y="0" fill="#FFFFFF" font-family="'Exo2.0-SemiBold'" font-size="60" letter-spacing="0.998">rterp</tspan><tspan x="213.177" y="0" fill="#FFFFFF" font-family="'Exo2.0-SemiBold'" font-size="60" letter-spacing="0.998">a</tspan><tspan x="243.536" y="0" fill="#FFFFFF" font-family="'Exo2.0-SemiBold'" font-size="60" letter-spacing="0.998">c</tspan><tspan x="271.916" y="0" fill="#FFFFFF" font-family="'Exo2.0-SemiBold'" font-size="60">k</tspan><tspan x="300.956" y="0" fill="#FFFFFF" font-family="'Exo2.0-SemiBold'" font-size="60" letter-spacing="0.998"> </tspan><tspan x="315.175" y="0" fill="#FFFFFF" font-family="'Exo2.0-SemiBold'" font-size="60">1</tspan></text>
				</g>
			</g>
		</g>
		<path clip-path="url(#SVGID_30_)" fill="#FFFFFF" d="M93.548-598.842c51.665,0,93.548,41.797,93.548,93.357
			c0,51.559-41.883,93.356-93.548,93.356S0-453.926,0-505.485C0-557.045,41.883-598.842,93.548-598.842"/>
		<line clip-path="url(#SVGID_30_)" fill="#FFFFFF" x1="-94.217" y1="-355.76" x2="1147.152" y2="-355.76"/>
		
			<line clip-path="url(#SVGID_30_)" fill="none" stroke="#FFFFFF" stroke-width="10" x1="-94.217" y1="-355.76" x2="1147.152" y2="-355.76"/>
		<path clip-path="url(#SVGID_30_)" fill="#B3B3B3" d="M123.811-528.585H66.282v15.581h2.398v38.353h52.734v-38.353h2.397V-528.585z
			 M119.017-477.048H71.078v-35.955h47.939V-477.048z M121.414-515.401H68.68h-0.001v-10.787h52.735V-515.401z"/>
		<path clip-path="url(#SVGID_30_)" fill="#B3B3B3" d="M86.377-497.414h17.397c2.477,0,4.486-1.951,4.486-4.359v-0.869
			c0-2.409-2.009-4.36-4.486-4.36H86.377c-2.478,0-4.484,1.951-4.484,4.36v0.869C81.894-499.364,83.899-497.414,86.377-497.414
			 M84.291-502.642c0-1.083,0.936-1.963,2.087-1.963h17.397c1.152,0,2.089,0.88,2.089,1.963v0.869c0,1.082-0.937,1.962-2.089,1.962
			H86.377c-1.151,0-2.087-0.88-2.087-1.962V-502.642z"/>
	</g>
	<rect x="-93.978" y="-788.059" clip-path="url(#SVGID_2_)" fill="#FFFFFF" width="1242" height="132.714"/>
	
		<line clip-path="url(#SVGID_2_)" fill="none" stroke="#B3B3B3" stroke-width="5" stroke-miterlimit="10" x1="-57.685" y1="-731.368" x2="-2.341" y2="-731.368"/>
	
		<line clip-path="url(#SVGID_2_)" fill="none" stroke="#B3B3B3" stroke-width="5" stroke-miterlimit="10" x1="-57.685" y1="-717.368" x2="-2.341" y2="-717.368"/>
	
		<line clip-path="url(#SVGID_2_)" fill="none" stroke="#B3B3B3" stroke-width="5" stroke-miterlimit="10" x1="-57.685" y1="-703.368" x2="-2.341" y2="-703.368"/>
	<g clip-path="url(#SVGID_2_)">
		<text transform="matrix(1 0 0 1 439.7363 -703.3682)"><tspan x="0" y="0" fill="#B3B3B3" font-family="'Exo2.0-Medium'" font-size="42">P</tspan><tspan x="22.176" y="0" fill="#B3B3B3" font-family="'Exo2.0-Medium'" font-size="42">acka</tspan><tspan x="101.177" y="0" fill="#B3B3B3" font-family="'Exo2.0-Medium'" font-size="42">g</tspan><tspan x="124.528" y="0" fill="#B3B3B3" font-family="'Exo2.0-Medium'" font-size="42">es</tspan></text>
	</g>
	<rect x="-93.853" y="-865.668" clip-path="url(#SVGID_2_)" fill="#FFFFFF" width="1241.75" height="77.609"/>
	<g clip-path="url(#SVGID_2_)">
		<defs>
			<rect id="SVGID_43_" x="-93.978" y="-865.668" width="1242" height="2208"/>
		</defs>
		<clipPath id="SVGID_44_">
			<use xlink:href="#SVGID_43_"  overflow="visible"/>
		</clipPath>
		<path clip-path="url(#SVGID_44_)" d="M272.836-838.338c7.526,0,14.385,2.808,19.645,7.412l3.653-4.089
			c-6.23-5.479-14.366-9.311-23.298-9.311c-8.92,0-17.045,3.821-23.268,9.289l3.646,4.089
			C258.471-835.545,265.318-838.338,272.836-838.338"/>
		<path clip-path="url(#SVGID_44_)" d="M272.836-826.545c4.509,0,8.632,1.656,11.812,4.392l3.862-4.324
			c-4.203-3.661-9.675-6.052-15.674-6.052c-5.991,0-11.456,2.384-15.658,6.033l3.857,4.328
			C264.215-824.893,268.331-826.545,272.836-826.545"/>
		<path clip-path="url(#SVGID_44_)" d="M280.783-817.825c-2.152-1.812-4.922-3.066-7.946-3.066s-5.791,1.251-7.939,3.055
			l7.939,8.909L280.783-817.825z"/>
		<path clip-path="url(#SVGID_44_)" fill-rule="evenodd" clip-rule="evenodd" d="M1120.734-832.684c3.752,0,5.82,3.039,5.82,6.791
			c0,3.751-2.068,6.791-5.82,6.791V-832.684z"/>
		<path clip-path="url(#SVGID_44_)" d="M1112.974-842.385c2.14,0,3.88,1.741,3.88,3.881v25.223c0,2.139-1.74,3.88-3.88,3.88h-75.67
			c-2.14,0-3.881-1.741-3.881-3.88v-25.223c0-2.14,1.741-3.881,3.881-3.881H1112.974 M1112.974-844.325h-75.67
			c-3.214,0-5.82,2.607-5.82,5.821v25.223c0,3.213,2.606,5.821,5.82,5.821h75.67c3.214,0,5.82-2.608,5.82-5.821v-25.223
			C1118.794-841.718,1116.188-844.325,1112.974-844.325"/>
		<path clip-path="url(#SVGID_44_)" fill-rule="evenodd" clip-rule="evenodd" d="M1076.108-840.445h-36.863
			c-2.146,0-3.882,1.736-3.882,3.88v21.343c0,2.145,1.736,3.881,3.882,3.881h36.863V-840.445z"/>
	</g>
	<g clip-path="url(#SVGID_2_)">
		<text transform="matrix(1 0 0 1 76.8853 -810.2388)"><tspan x="0" y="0" font-family="'HelveticaNeue'" font-size="46.5656" letter-spacing="1">Carrie</tspan><tspan x="121.953" y="0" font-family="'HelveticaNeue'" font-size="46.5656">r</tspan></text>
	</g>
	<g clip-path="url(#SVGID_2_)">
		<text transform="matrix(1 0 0 1 920.1885 -810.2388)" font-family="'HelveticaNeue'" font-size="46.5656">50%</text>
	</g>
	<g clip-path="url(#SVGID_2_)">
		<text transform="matrix(1 0 0 1 438.1411 -810.2388)"><tspan x="0" y="0" font-family="'HelveticaNeue-Medium'" font-size="46.5656">8</tspan><tspan x="24.167" y="0" font-family="'HelveticaNeue-Medium'" font-size="46.5656">:</tspan><tspan x="34.038" y="0" font-family="'HelveticaNeue-Medium'" font-size="46.5656">0</tspan><tspan x="58.205" y="0" font-family="'HelveticaNeue-Medium'" font-size="46.5656">8</tspan><tspan x="82.325" y="0" font-family="'HelveticaNeue-Medium'" font-size="46.5656"> A</tspan><tspan x="121.253" y="0" font-family="'HelveticaNeue-Medium'" font-size="46.5656">M</tspan></text>
	</g>
	<g clip-path="url(#SVGID_2_)">
		<defs>
			<rect id="SVGID_45_" x="-93.978" y="-865.668" width="1242" height="2208"/>
		</defs>
		<clipPath id="SVGID_46_">
			<use xlink:href="#SVGID_45_"  overflow="visible"/>
		</clipPath>
		<path clip-path="url(#SVGID_46_)" fill-rule="evenodd" clip-rule="evenodd" d="M-57.958-836.564
			c5.896,0,10.671,4.778,10.671,10.671c0,5.894-4.775,10.672-10.671,10.672c-5.893,0-10.671-4.778-10.671-10.672
			C-68.629-831.786-63.851-836.564-57.958-836.564"/>
		<path clip-path="url(#SVGID_46_)" fill-rule="evenodd" clip-rule="evenodd" d="M-30.795-836.564
			c5.896,0,10.671,4.778,10.671,10.671c0,5.894-4.775,10.672-10.671,10.672c-5.893,0-10.671-4.778-10.671-10.672
			C-41.466-831.786-36.688-836.564-30.795-836.564"/>
		<path clip-path="url(#SVGID_46_)" fill-rule="evenodd" clip-rule="evenodd" d="M-3.632-836.564
			c5.896,0,10.671,4.778,10.671,10.671c0,5.894-4.775,10.672-10.671,10.672c-5.893,0-10.671-4.778-10.671-10.672
			C-14.303-831.786-9.524-836.564-3.632-836.564"/>
		<path clip-path="url(#SVGID_46_)" d="M50.695-835.594c5.349,0,9.701,4.352,9.701,9.701c0,5.351-4.352,9.702-9.701,9.702
			s-9.701-4.352-9.701-9.702C40.994-831.242,45.346-835.594,50.695-835.594 M50.695-836.564c-5.893,0-10.671,4.779-10.671,10.671
			c0,5.894,4.778,10.672,10.671,10.672c5.896,0,10.671-4.778,10.671-10.672C61.366-831.785,56.591-836.564,50.695-836.564"/>
		<path clip-path="url(#SVGID_46_)" d="M23.532-835.594c5.349,0,9.701,4.352,9.701,9.701c0,5.351-4.352,9.702-9.701,9.702
			s-9.701-4.352-9.701-9.702C13.831-831.242,18.183-835.594,23.532-835.594 M23.532-836.564c-5.893,0-10.671,4.779-10.671,10.671
			c0,5.894,4.778,10.672,10.671,10.672c5.896,0,10.671-4.778,10.671-10.672C34.203-831.785,29.428-836.564,23.532-836.564"/>
	</g>
</g>
</svg>
