<?xml version="1.0" encoding="utf-8"?>
<!-- Generator: Adobe Illustrator 16.0.0, SVG Export Plug-In . SVG Version: 6.00 Build 0)  -->
<!DOCTYPE svg PUBLIC "-//W3C//DTD SVG 1.1//EN" "http://www.w3.org/Graphics/SVG/1.1/DTD/svg11.dtd">
<svg version="1.1" id="Layer_1" xmlns="http://www.w3.org/2000/svg" xmlns:xlink="http://www.w3.org/1999/xlink" x="0px" y="0px"
	 width="105px" height="105px" viewBox="0 0 105 105" enable-background="new 0 0 105 105" xml:space="preserve">
<rect x="-268" y="-258" fill="#FFFFFF" stroke="#000000" stroke-miterlimit="10" width="0" height="0"/>
<path fill="#F8A89F" d="M53.021,1C24.287,1,1,24.288,1,53.021s23.287,52.021,52.021,52.021c28.732,0,52.021-23.288,52.021-52.021
	S81.754,1,53.021,1 M53.021,100.881c-26.39,0-47.86-21.471-47.86-47.859c0-26.39,21.471-47.859,47.86-47.859
	c26.389,0,47.859,21.47,47.859,47.859C100.881,79.41,79.41,100.881,53.021,100.881"/>
<polygon fill="#F8A89F" points="32.491,29.508 29.548,32.451 50.148,53.05 29.646,73.552 32.589,76.495 53.09,55.993 73.592,76.495 
	76.535,73.552 56.033,53.05 76.633,32.451 73.689,29.508 53.09,50.106 "/>
</svg>
