<?xml version="1.0" encoding="utf-8"?>
<!-- Generator: Adobe Illustrator 16.0.3, SVG Export Plug-In . SVG Version: 6.00 Build 0)  -->
<!DOCTYPE svg PUBLIC "-//W3C//DTD SVG 1.1//EN" "http://www.w3.org/Graphics/SVG/1.1/DTD/svg11.dtd">
<svg version="1.1" id="Layer_1" xmlns="http://www.w3.org/2000/svg" xmlns:xlink="http://www.w3.org/1999/xlink" x="0px" y="0px"
	 width="612px" height="792px" viewBox="0 0 612 792" enable-background="new 0 0 612 792" xml:space="preserve">
<g>
	<path fill="#49668A" d="M305.826,388.242c2.262,0,4.306,0.927,5.777,2.42h10.089v-4.116h0.001c0-3.461-2.807-6.268-6.268-6.268
		h-17.129v7.901h-1.285v-7.901h-0.742c-0.049,0-0.097,0.003-0.146,0.003v7.898h-1.285v-7.735c-0.311,0.073-0.613,0.168-0.905,0.285
		v7.45h-1.285v-6.748c-1.601,1.135-2.648,3.002-2.648,5.114v4.116h10.049C301.52,389.169,303.563,388.242,305.826,388.242
		 M313.428,383.904c0-0.555,0.449-1.005,1.006-1.005h3.389c0.555,0,1.006,0.45,1.006,1.005v3.464c0,0.555-0.451,1.005-1.006,1.005
		h-3.389c-0.557,0-1.006-0.45-1.006-1.005V383.904z"/>
	<path fill="#49668A" d="M309.939,391.655c-0.459-0.4-0.976-0.736-1.537-0.992c-0.786-0.357-1.658-0.559-2.577-0.559
		c-0.918,0-1.79,0.201-2.577,0.559c-0.561,0.256-1.078,0.592-1.536,0.992c-1.306,1.147-2.134,2.826-2.134,4.696
		c0,3.445,2.803,6.247,6.247,6.247c3.446,0,6.247-2.802,6.247-6.247C312.072,394.481,311.246,392.803,309.939,391.655
		 M305.846,400.969c-2.55,0-4.617-2.067-4.617-4.617s2.067-4.617,4.617-4.617s4.617,2.067,4.617,4.617
		S308.396,400.969,305.846,400.969"/>
	<path fill="#49668A" d="M296.269,412.136h19.155c3.463,0,6.269-2.807,6.269-6.269v-14.212h-9.258
		c0.944,1.326,1.501,2.945,1.501,4.696c0,4.479-3.631,8.109-8.11,8.109c-4.478,0-8.109-3.631-8.109-8.109
		c0-1.751,0.556-3.37,1.5-4.696H290v14.212C290,409.329,292.808,412.136,296.269,412.136"/>
</g>
</svg>
