<?xml version="1.0" encoding="utf-8"?>
<!-- Generator: Adobe Illustrator 16.0.3, SVG Export Plug-In . SVG Version: 6.00 Build 0)  -->
<!DOCTYPE svg PUBLIC "-//W3C//DTD SVG 1.1//EN" "http://www.w3.org/Graphics/SVG/1.1/DTD/svg11.dtd">
<svg version="1.1" id="Layer_1" xmlns="http://www.w3.org/2000/svg" xmlns:xlink="http://www.w3.org/1999/xlink" x="0px" y="0px"
	 width="612px" height="792px" viewBox="0 0 612 792" enable-background="new 0 0 612 792" xml:space="preserve">
<g>
	<rect x="290.665" y="391.463" fill="#2E65A0" width="6.528" height="21.089"/>
	<path fill="#2E65A0" d="M293.897,388.701c2.132,0,3.861-1.743,3.861-3.892c0-2.149-1.729-3.892-3.861-3.892
		c-2.132,0-3.86,1.742-3.86,3.892C290.037,386.958,291.765,388.701,293.897,388.701"/>
	<path fill="#2E65A0" d="M307.627,401.481c0-2.966,1.365-4.73,3.979-4.73c2.4,0,3.554,1.693,3.554,4.73v11.07h6.496v-13.353
		c0-5.649-3.201-8.381-7.673-8.381c-4.473,0-6.355,3.484-6.355,3.484v-2.84h-6.261v21.089h6.261V401.481z"/>
</g>
</svg>
