<?xml version="1.0" encoding="utf-8"?>
<!-- Generator: Adobe Illustrator 16.0.3, SVG Export Plug-In . SVG Version: 6.00 Build 0)  -->
<!DOCTYPE svg PUBLIC "-//W3C//DTD SVG 1.1//EN" "http://www.w3.org/Graphics/SVG/1.1/DTD/svg11.dtd">
<svg version="1.1" id="Layer_1" xmlns="http://www.w3.org/2000/svg" xmlns:xlink="http://www.w3.org/1999/xlink" x="0px" y="0px"
	 width="612px" height="792px" viewBox="0 0 612 792" enable-background="new 0 0 612 792" xml:space="preserve">
<path fill="#5F6B9E" d="M302.169,412.932h6.735v-16.868h4.7l0.501-5.646h-5.201v-3.217c0-1.331,0.27-1.858,1.557-1.858h3.645v-5.86
	h-4.664c-5.012,0-7.272,2.206-7.272,6.432v4.503h-3.503v5.718h3.503V412.932z"/>
</svg>
