<?xml version="1.0" encoding="utf-8"?>
<!-- Generator: Adobe Illustrator 16.0.3, SVG Export Plug-In . SVG Version: 6.00 Build 0)  -->
<!DOCTYPE svg PUBLIC "-//W3C//DTD SVG 1.1//EN" "http://www.w3.org/Graphics/SVG/1.1/DTD/svg11.dtd">
<svg version="1.1" id="Layer_1" xmlns="http://www.w3.org/2000/svg" xmlns:xlink="http://www.w3.org/1999/xlink" x="0px" y="0px"
	 width="612px" height="792px" viewBox="0 0 612 792" enable-background="new 0 0 612 792" xml:space="preserve">
<path fill="#4AA2CA" d="M288.871,407.212c3.181,2.039,6.958,3.229,11.016,3.229c13.344,0,20.882-11.271,20.428-21.378
	c1.404-1.013,2.623-2.279,3.586-3.721c-1.289,0.572-2.674,0.959-4.127,1.132c1.483-0.889,2.623-2.298,3.159-3.976
	c-1.389,0.824-2.927,1.422-4.563,1.744c-1.311-1.397-3.178-2.271-5.245-2.271c-4.64,0-8.049,4.329-7.001,8.826
	c-5.973-0.3-11.269-3.162-14.813-7.51c-1.883,3.23-0.976,7.457,2.224,9.595c-1.178-0.037-2.287-0.361-3.256-0.899
	c-0.077,3.33,2.308,6.443,5.765,7.139c-1.012,0.273-2.119,0.337-3.245,0.122c0.914,2.856,3.568,4.933,6.713,4.991
	C296.49,406.604,292.684,407.662,288.871,407.212"/>
</svg>
