<?xml version="1.0" encoding="utf-8"?>
<!-- Generator: Adobe Illustrator 16.0.3, SVG Export Plug-In . SVG Version: 6.00 Build 0)  -->
<!DOCTYPE svg PUBLIC "-//W3C//DTD SVG 1.1//EN" "http://www.w3.org/Graphics/SVG/1.1/DTD/svg11.dtd">
<svg version="1.1" id="Layer_1" xmlns="http://www.w3.org/2000/svg" xmlns:xlink="http://www.w3.org/1999/xlink" x="0px" y="0px"
	 width="612px" height="792px" viewBox="0 0 612 792" enable-background="new 0 0 612 792" xml:space="preserve">
<path fill="#EA2F21" d="M305.873,412.216c7.249,0,10.129-3.841,10.129-6.997c0-2.572-0.96-4.252-3.866-6.429
	c-2.946-2.149-3.667-3.363-0.854-5.538c1.586-1.226,2.695-2.86,2.695-4.877c0-2.197-0.897-4.191-2.588-5.159h2.395l2.039-2.139
	h-9.124c-5.695,0-8.488,3.413-8.488,7.168c0,3.838,2.632,6.859,7.774,6.859c-0.798,1.609-0.478,3.097,0.827,4.159
	c-8.781,0-10.66,3.853-10.66,6.82C296.152,409.93,300.573,412.216,305.873,412.216 M301.642,388.188
	c-0.425-3.23,1.224-5.701,3.683-5.629c2.458,0.074,4.562,2.725,4.988,5.953c0.424,3.229-0.992,5.309-3.45,5.234
	C304.404,393.672,302.067,391.418,301.642,388.188 M306.358,400.355c4.065,0,6.488,2.531,6.488,5.188
	c0,2.785-2.262,4.962-6.946,4.962c-3.664,0-6.31-2.319-6.31-5.104C299.59,402.671,302.695,400.314,306.358,400.355"/>
</svg>
