<?xml version="1.0" encoding="utf-8"?>
<!-- Generator: Adobe Illustrator 16.0.3, SVG Export Plug-In . SVG Version: 6.00 Build 0)  -->
<!DOCTYPE svg PUBLIC "-//W3C//DTD SVG 1.1//EN" "http://www.w3.org/Graphics/SVG/1.1/DTD/svg11.dtd">
<svg version="1.1" id="Layer_1" xmlns="http://www.w3.org/2000/svg" xmlns:xlink="http://www.w3.org/1999/xlink" x="0px" y="0px"
	 width="104.05px" height="104.05px" viewBox="0 0 104.05 104.05" enable-background="new 0 0 104.05 104.05" xml:space="preserve">
<g>
	<path fill="#F59690" d="M52.021,0C23.287,0,0,23.288,0,52.021c0,28.735,23.287,52.022,52.021,52.022
		c28.733,0,52.021-23.287,52.021-52.022C104.042,23.288,80.754,0,52.021,0 M52.021,99.881c-26.389,0-47.86-21.471-47.86-47.86
		c0-26.389,21.471-47.859,47.86-47.859c26.388,0,47.86,21.471,47.86,47.859C99.881,78.41,78.409,99.881,52.021,99.881"/>
	<polygon fill="#F59690" points="31.491,28.507 28.548,31.451 49.148,52.049 28.646,72.551 31.589,75.494 52.089,54.993 
		72.591,75.494 75.534,72.551 55.032,52.049 75.632,31.451 72.689,28.507 52.089,49.107 	"/>
</g>
</svg>
